%YAML 1.1
%TAG !u! tag:unity3d.com,2011:
--- !u!114 &11400000
MonoBehaviour:
  m_ObjectHideFlags: 0
  m_CorrespondingSourceObject: {fileID: 0}
  m_PrefabInstance: {fileID: 0}
  m_PrefabAsset: {fileID: 0}
  m_GameObject: {fileID: 0}
  m_Enabled: 1
  m_EditorHideFlags: 0
  m_Script: {fileID: 11500000, guid: ab8d3c1f5c0017442a6a08faa2cb2f61, type: 3}
  m_Name: GameLevel5
  m_EditorClassIdentifier: 
  EnemyPrefabName: Enemy
  GoalPrefabName: Goal
  EnemyPositions:
  - {x: -1.76, y: -2.45}
  - {x: -1.77, y: -1.1500001}
  - {x: 1.77, y: 1.5}
  - {x: 1.77, y: 2.8}
  - {x: 0.36, y: 1.5}
  - {x: 0.36, y: 2.8}
  GoalPosition: {x: -1.15, y: 4.175}
